<?xml version="1.0" encoding="UTF-8"?>
<svg width="23px" height="23px" viewBox="0 0 23 23" version="1.1" xmlns="http://www.w3.org/2000/svg" xmlns:xlink="http://www.w3.org/1999/xlink">
    <!-- Generator: Sketch 49 (51002) - http://www.bohemiancoding.com/sketch -->
    <title>Dribbble</title>
    <desc>Created with Sketch.</desc>
    <defs></defs>
    <g id="Home" stroke="none" stroke-width="1" fill="none" fill-rule="evenodd">
        <g id="desktop/hero" transform="translate(-1305.000000, -241.000000)" fill="#2347FF">
            <g id="Stacked-Group" transform="translate(1305.000000, 156.000000)">
                <path d="M16.9886517,104.645129 C16.8885753,104.052854 16.3652026,101.16991 15.0763803,97.6311365 C18.2477215,97.124052 20.9944141,97.9935328 21.1972717,98.0597919 C20.7604516,100.796696 19.1930382,103.156329 16.9886517,104.645129 L16.9886517,104.645129 L16.9886517,104.645129 Z M11.5006762,106.321888 C9.12318457,106.321888 6.94314106,105.476748 5.24319398,104.070433 C5.37302287,104.175907 5.46363262,104.242166 5.46363262,104.242166 C5.46363262,104.242166 7.34615158,100.13681 13.1708708,98.1071198 C13.192509,98.0990064 13.2154995,98.0935975 13.2371376,98.0868364 C14.6192744,101.676995 15.1886282,104.684344 15.3346857,105.543007 C14.156759,106.04333 12.8598224,106.321888 11.5006762,106.321888 L11.5006762,106.321888 L11.5006762,106.321888 Z M1.67830893,96.4993239 C1.67830893,96.3952025 1.68371847,96.2924334 1.68642324,96.1896643 C1.86088081,96.193721 6.71323573,96.3032512 11.7698007,94.7901111 C12.0510966,95.3404668 12.3202211,95.9016403 12.566355,96.4601094 C12.4365261,96.4952672 12.3080496,96.5344817 12.1795731,96.577753 C6.879579,98.2896702 4.19103898,103.057617 4.19103898,103.057617 C4.19103898,103.057617 4.19509614,103.061673 4.19509614,103.063025 C2.63038749,101.322712 1.67830893,99.0225763 1.67830893,96.4993239 L1.67830893,96.4993239 L1.67830893,96.4993239 Z M7.30963721,87.6192604 C7.44081849,87.7936975 9.25707062,90.2560997 10.9570177,93.276971 C6.2412536,94.5304839 2.14758629,94.4804515 1.88928088,94.4763948 C2.5262539,91.4338879 4.56970659,88.9119878 7.30963721,87.6192604 L7.30963721,87.6192604 L7.30963721,87.6192604 Z M9.14752749,86.9647833 C9.14752749,86.9661356 9.1461751,86.9674878 9.1461751,86.9674878 C9.1461751,86.9674878 9.13400365,86.9701923 9.11642265,86.9728967 C9.12724172,86.9701923 9.13670841,86.96884 9.14752749,86.9647833 L9.14752749,86.9647833 L9.14752749,86.9647833 Z M17.9867114,89.1310483 C17.9623684,89.1675584 16.5640031,91.2973132 12.8557653,92.6860486 C11.1774563,89.6016227 9.33280414,87.1513904 9.18539425,86.95667 C9.92785324,86.776824 10.7027694,86.6794638 11.5006762,86.6794638 C13.9863586,86.6794638 16.2570118,87.6070904 17.9867114,89.1310483 L17.9867114,89.1310483 L17.9867114,89.1310483 Z M21.3189863,96.4019637 C21.1769859,96.3708625 17.8528253,95.6555353 14.4786264,96.080134 C14.4083025,95.9124581 14.3393309,95.7434299 14.2663021,95.5744018 C14.0620921,95.0930096 13.8416534,94.6170263 13.6131005,94.1491563 C17.4917387,92.5657005 19.065914,90.2899053 19.0848474,90.2628608 C20.4615746,91.9355635 21.2959958,94.0720795 21.3189863,96.4019637 L21.3189863,96.4019637 L21.3189863,96.4019637 Z M22.7673899,94.1856664 C22.6159229,93.4473514 22.3887223,92.718502 22.0952549,92.0234582 C21.8085494,91.3419366 21.4501676,90.6847551 21.0349856,90.0708448 C20.6252131,89.4623435 20.1518786,88.8889999 19.6325631,88.3697454 C19.1118951,87.8491387 18.5398365,87.3772121 17.9299112,86.9661356 C17.3159287,86.5496502 16.65867,86.1940149 15.9770683,85.9046387 C15.2819427,85.6125581 14.55436,85.3853842 13.8159581,85.2352872 C13.0586229,85.0797813 12.2796496,85 11.5006762,85 C10.7203504,85 9.94137708,85.0797813 9.18404187,85.2352872 C8.44564003,85.3853842 7.71805727,85.6125581 7.02293173,85.9046387 C6.34133004,86.1940149 5.68407126,86.5496502 5.0687364,86.9661356 C4.46016346,87.3772121 3.8881049,87.8491387 3.36743694,88.3697454 C2.84812136,88.8889999 2.37613924,89.4623435 1.96501441,90.0708448 C1.54983242,90.6847551 1.19145058,91.3419366 0.904745105,92.0234582 C0.609925325,92.718502 0.384077145,93.4473514 0.232610102,94.1856664 C0.0784382901,94.9415604 0,95.7204421 0,96.4993239 C0,97.2809101 0.0784382901,98.0597919 0.232610102,98.817038 C0.384077145,99.555353 0.609925325,100.28285 0.904745105,100.976542 C1.19145058,101.658063 1.54983242,102.317949 1.96501441,102.93186 C2.37613924,103.540361 2.84812136,104.111 3.36743694,104.632959 C3.8881049,105.152214 4.46016346,105.622788 5.0687364,106.035217 C5.68407126,106.45035 6.34133004,106.807337 7.02293173,107.095361 C7.71805727,107.390146 8.44564003,107.614616 9.18404187,107.764713 C9.94137708,107.921571 10.7203504,108 11.5006762,108 C12.2796496,108 13.0586229,107.921571 13.8159581,107.764713 C14.55436,107.614616 15.2819427,107.390146 15.9770683,107.095361 C16.65867,106.807337 17.3159287,106.45035 17.9299112,106.035217 C18.5398365,105.622788 19.1118951,105.152214 19.6325631,104.632959 C20.1518786,104.111 20.6252131,103.540361 21.0349856,102.93186 C21.4501676,102.317949 21.8085494,101.658063 22.0952549,100.976542 C22.3887223,100.28285 22.6159229,99.555353 22.7673899,98.817038 C22.9215617,98.0597919 23,97.2809101 23,96.4993239 C23,95.7204421 22.9215617,94.9415604 22.7673899,94.1856664 L22.7673899,94.1856664 L22.7673899,94.1856664 Z" id="Dribbble"></path>
            </g>
        </g>
    </g>
</svg>