<?xml version="1.0" encoding="UTF-8"?>
<svg width="105px" height="29px" viewBox="0 0 105 29" version="1.1" xmlns="http://www.w3.org/2000/svg" xmlns:xlink="http://www.w3.org/1999/xlink">
    <!-- Generator: Sketch 48.1 (47250) - http://www.bohemiancoding.com/sketch -->
    <title>logo</title>
    <desc>Created with Sketch.</desc>
    <defs></defs>
    <g id="desktop/hero" stroke="none" stroke-width="1" fill="none" fill-rule="evenodd" transform="translate(-66.000000, -40.000000)">
        <path d="M81,51.8917441 L81,68.7383816 L78,68.7383816 L69,56.3511482 L69,68.7383816 L66,68.7383816 L66,51.8917441 L69,51.8917441 L78,64.2789776 L78,51.8917441 L81,51.8917441 Z M87,68.7383816 L83.952,68.7383816 L84,51.8917441 L87,51.8917441 L87,68.7383816 Z M97,57.845544 L100.5,57.845544 L96.5,62.8004374 L101,68.7383816 L97.272,68.7383816 L93,62.8004374 L97,57.845544 Z M93,68.7383816 L90,68.7383816 L90,51.8917441 L93,51.8917441 L93,68.7383816 Z M115.152,64.3146528 C115.152,63.8072692 114.964002,63.3593513 114.588,62.9708857 C114.211998,62.5824201 113.744003,62.2653101 113.184,62.0195462 C112.623997,61.7737823 112.012003,61.4883833 111.348,61.1633406 C110.683997,60.838298 110.072003,60.4974047 109.512,60.1406506 C108.951997,59.7838965 108.484002,59.2844483 108.108,58.6422909 C107.731998,58.0001335 107.544,57.2588888 107.544,56.4185347 C107.544,55.1342199 108.015995,54.0481182 108.96,53.1601968 C109.936005,52.2722755 111.207992,51.8283215 112.776,51.8283215 C114.904011,51.8283215 116.503995,52.4229027 117.576,53.6120831 L115.992,55.800164 C115.143996,54.9756656 114.152006,54.5634226 113.016,54.5634226 C112.295996,54.5634226 111.724002,54.7299054 111.3,55.0628759 C110.875998,55.3958464 110.664,55.8398004 110.664,56.3947512 C110.664,56.6801545 110.719999,56.9457341 110.832,57.1914981 C110.944001,57.437262 111.067999,57.6394197 111.204,57.797977 C111.340001,57.9565344 111.563998,58.1309449 111.876,58.3212138 C112.188002,58.5114826 112.435999,58.6502183 112.62,58.7374248 C112.804001,58.8246314 113.111998,58.963367 113.544,59.1536359 C113.976002,59.3439047 114.279999,59.4786765 114.456,59.5579552 C115.160004,59.8750699 115.775997,60.2080354 116.304,60.5568617 C116.896003,60.9056879 117.371998,61.4051362 117.732,62.0552214 C118.092002,62.7053067 118.272,63.4505152 118.272,64.2908693 C118.272,65.6861743 117.736005,66.8198426 116.664,67.6919081 C115.591995,68.5639737 114.256008,69 112.656,69 C111.535994,69 110.424006,68.7700952 109.32,68.3102788 C108.263995,67.8346067 107.544002,67.1924589 107.16,66.3838163 L108.84,64.3860033 C109.288002,64.9726656 109.867996,65.4324751 110.58,65.7654456 C111.292004,66.0984161 111.999996,66.2648989 112.704,66.2648989 C113.440004,66.2648989 114.031998,66.0904883 114.48,65.7416621 C114.928002,65.3928359 115.152,64.9171709 115.152,64.3146528 Z M124,68.7859486 L121,68.7383816 L121,51.8917441 L124,51.8917441 L124,58.7374248 C124.800004,57.9604937 125.479994,57.845544 126.744,57.845544 C129.704015,57.845544 131,59.4548778 131,62.5784582 L131,68.7383816 L128,68.7383816 L128,62.8004374 C128,62.0076505 127.916002,61.5914456 127.5,61.1633406 C127.083998,60.7352357 126.792004,60.4141607 126.024,60.4141607 C125.095995,60.4141607 124.656003,60.6559563 124,61.3060416 L124,68.7859486 Z M137,68.7383816 L134,68.7383816 L134,57.845544 L137,57.845544 L137,68.7383816 Z M135.5,52.8827228 C136.25,52.8827228 137,53.6259568 137,54.3691908 C137,55.1124248 136.25,55.8556588 135.5,55.8556588 C134.75,55.8556588 134,55.1124248 134,54.3691908 C134,53.6259568 134.75,52.8827228 135.5,52.8827228 Z M140,65.7654456 L140,51.8917441 L143.02,51.8917441 L143.02,64.7744669 C143.02,65.9319358 143.711997,66.4075998 144.336,66.4075998 C144.688002,66.4075998 145.063998,66.2649003 145.464,65.979497 L146.04,68.072444 C145.287996,68.674962 144.172006,68.7383816 143.02,68.7383816 C141.323992,68.7383816 140,67.8901145 140,65.7654456 Z M148.752,67.4302898 C147.679995,66.3679553 147,65.0202378 147,63.3870968 C147,61.7539557 147.679995,60.414166 148.752,59.3676873 C149.824005,58.3053528 151.247991,57.8376162 153.024,57.8376162 C154.784009,57.8376162 156.199995,58.3053528 157.272,59.3676873 C158.360005,60.414166 159,61.7539557 159,63.3870968 C159,65.0043821 158.360005,66.3520996 157.272,67.4302898 C156.183995,68.4767685 154.768009,68.7383816 153.024,68.7383816 C151.247991,68.7383816 149.824005,68.4767685 148.752,67.4302898 Z M150.936,61.1990159 C150.375997,61.7698224 150.096,62.4991754 150.096,63.3870968 C150.096,64.2750181 150.371997,65.008335 150.924,65.5870694 C151.476003,66.1658039 152.175996,66.4551668 153.024,66.4551668 C153.888004,66.4551668 154.595997,66.1697678 155.148,65.5989612 C155.700003,65.0281546 155.976,64.2908738 155.976,63.3870968 C155.976,62.4991754 155.696003,61.7698224 155.136,61.1990159 C154.575997,60.6282093 153.872004,60.3428103 153.024,60.3428103 C152.191996,60.3428103 151.496003,60.6282093 150.936,61.1990159 Z M168,57.8376162 L171,57.8376162 L166.5,68.7383816 L164.5,68.7383816 L160,57.8376162 L163,57.8376162 C164.527999,61.8808063 165.361333,64.1930899 165.5,64.7744669 C165.649334,64.1719489 166.482667,61.8596653 168,57.8376162 Z M85.4828571,40 L88,44.9548934 L83,44.9548934 L85.4828571,40 Z" id="logo" fill="#000000"></path>
    </g>
</svg>